<?xml version="1.0" encoding="utf-8"?>
<!-- Generator: Adobe Illustrator 19.0.0, SVG Export Plug-In . SVG Version: 6.00 Build 0)  -->
<svg version="1.1" xmlns="http://www.w3.org/2000/svg" xmlns:xlink="http://www.w3.org/1999/xlink" x="0px" y="0px"
	 viewBox="0 0 128 128" style="enable-background:new 0 0 128 128;" xml:space="preserve">
<style type="text/css">
	.st0{display:none;}
	.st1{display:inline;}
	.st2{clip-path:url(#XMLID_134_);fill:#040606;}
	.st3{clip-path:url(#XMLID_136_);}
	.st4{clip-path:url(#XMLID_137_);fill:#010101;}
	.st5{clip-path:url(#XMLID_138_);}
</style>
<g id="Capa_1" class="st0">
</g>
<g id="Capa_2" class="st0">
	<g class="st1">
		<path d="M117.7,35.8l-8.4-1.7c-0.4-0.5-0.9-0.9-1.5-1.1c0.7-0.7,1.2-1.5,1.6-2.1c1-1.5,1.9-3.1,2.5-4.6c0.3-0.7,0.5-1.3,0.7-1.9
			c0.8-0.7,1.3-1.7,1.3-2.7V19c0-0.7-0.2-1.5-0.7-2v-3.6c0-6.3-5.1-11.4-11.4-11.4h-3.7c-6.3,0-11.4,5.1-11.4,11.4V17
			c-0.4,0.6-0.7,1.3-0.7,2v2.6c0,1,0.5,2,1.3,2.7c0.2,0.6,0.4,1.3,0.7,1.9c0.6,1.5,1.4,3.1,2.5,4.6c0.4,0.6,1,1.4,1.6,2.1
			c-0.6,0.3-1.1,0.7-1.5,1.1l-8.2,1.7c0,0.1-0.1,0.1-0.1,0.2c-0.1,0.4-0.3,0.8-0.5,1.2c-0.2,0.6-0.5,1.1-0.7,1.7l2.6,0.5
			c4.7,0.9,8.1,5.1,8.1,9.8v30.2c0,1-0.1,2-0.4,2.9v2.4c0,4-2.5,7.4-5.9,8.8v17.1c0,4,3.3,7.3,7.3,7.3c4,0,7.3-3.3,7.3-7.3
			c0,4,3.3,7.3,7.3,7.3c4,0,7.3-3.3,7.3-7.3V79.3c0.6,0.4,1.4,0.7,2.2,0.7c2.3,0,4.1-1.8,4.1-4.1v-3.3c0.3-0.6,0.4-1.3,0.4-2V40.4
			C121.5,38.1,119.9,36.2,117.7,35.8L117.7,35.8z M97.8,43.4c0,0.3-0.2,0.6-0.5,0.6c-0.1,0-0.1,0-0.2,0c-0.2,0-0.4-0.1-0.6-0.3
			l-2.1-2.7c-0.1-0.1-0.1-0.3-0.1-0.4l0-4.4c0-0.3,0.1-0.5,0.4-0.6c0.2-0.1,0.5-0.1,0.7,0c0.6,0.3,1.2,0.5,1.8,0.6
			c0.4,0.1,0.6,0.4,0.6,0.7v1.8c0.1,0,0.2,0.1,0.3,0.2c0.1,0.2,0.2,0.4,0.2,0.6L97.8,43.4z M105.5,41.1l-2.1,2.7
			c-0.1,0.2-0.4,0.3-0.6,0.3c-0.1,0-0.1,0-0.2,0c-0.3-0.1-0.5-0.3-0.5-0.6l-0.4-3.9c0-0.2,0-0.4,0.2-0.6c0.1-0.1,0.2-0.1,0.3-0.2V37
			c0-0.4,0.3-0.7,0.6-0.7c0.6-0.1,1.2-0.3,1.8-0.6c0.2-0.1,0.5-0.1,0.7,0c0.2,0.1,0.4,0.4,0.4,0.6v4.4
			C105.7,40.8,105.6,40.9,105.5,41.1L105.5,41.1z M106.3,28.6c-1.8,2.6-3.5,3.8-4.3,3.8H98c-0.9,0-2.6-1.2-4.3-3.8
			c-1.4-2.1-2.4-4.3-2.6-6.1l0-0.3l-0.7-0.5c-0.2-0.1-0.3-0.4-0.3-0.6v-1.2c0-0.4,0.3-0.7,0.7-0.7H91v-1.3c0-0.3,0.2-0.5,0.4-0.7
			c1-0.5,3-1.3,5.1-1.3c1.7,0,3,0.5,4.1,1.6c1.3,1.4,2.8,2,4.5,2c0.9,0,1.9-0.2,2.9-0.7c0.2-0.1,0.5-0.1,0.7,0.1
			c0.1,0.1,0.2,0.1,0.2,0.2h0.4c0.4,0,0.7,0.3,0.7,0.7v1.2c0,0.2-0.1,0.5-0.3,0.6l-0.7,0.5l0,0.3C108.7,24.3,107.7,26.5,106.3,28.6
			L106.3,28.6z M106.3,28.6"/>
		<path d="M38.7,84.7v-2.4c-0.3-0.9-0.4-1.9-0.4-2.9V49.2c0-4.7,3.4-8.9,8-9.8l2.5-0.5c-0.3-0.6-0.5-1.2-0.8-1.7
			c-0.2-0.4-0.3-0.8-0.5-1.2c-0.1-0.1-0.1-0.1-0.2-0.2l-8.2-1.6c-0.4-0.5-0.9-0.9-1.5-1.1c0.7-0.7,1.2-1.5,1.6-2.1
			c1-1.5,1.9-3.1,2.5-4.6c0.3-0.7,0.5-1.3,0.7-1.9c0.8-0.7,1.3-1.7,1.3-2.7V19c0-0.7-0.2-1.5-0.7-2v-3.6C43.2,7.1,38,2,31.7,2H28
			c-6.3,0-11.4,5.1-11.4,11.4V17c-0.4,0.6-0.7,1.3-0.7,2v2.6c0,1,0.5,2,1.3,2.7c0.2,0.6,0.4,1.3,0.7,1.9c0.6,1.5,1.4,3.1,2.5,4.6
			c0.4,0.6,1,1.4,1.6,2.1c-0.6,0.3-1.1,0.7-1.5,1.1l-8.2,1.7c-2.2,0.4-3.7,2.4-3.7,4.6v30.2c0,0.7,0.2,1.4,0.4,2v3.3
			c0,2.3,1.8,4.1,4.1,4.1c0.8,0,1.6-0.2,2.2-0.7v31.3c0,4,3.3,7.3,7.3,7.3c4,0,7.3-3.3,7.3-7.3c0,4,3.3,7.3,7.3,7.3
			c4,0,7.3-3.3,7.3-7.3V93.4C41.1,92,38.7,88.6,38.7,84.7L38.7,84.7z M27.7,43.4c0,0.3-0.2,0.6-0.5,0.6c-0.1,0-0.1,0-0.2,0
			c-0.2,0-0.4-0.1-0.6-0.3l-2.1-2.7c-0.1-0.1-0.1-0.3-0.1-0.4l0-4.4c0-0.3,0.1-0.5,0.4-0.6c0.2-0.1,0.5-0.1,0.7,0
			c0.6,0.3,1.2,0.5,1.8,0.6c0.3,0.1,0.6,0.4,0.6,0.7v1.8c0.1,0,0.2,0.1,0.3,0.2c0.1,0.2,0.2,0.4,0.2,0.6L27.7,43.4z M35.4,41.1
			l-2.1,2.7c-0.1,0.2-0.4,0.3-0.6,0.3c-0.1,0-0.1,0-0.2,0c-0.3-0.1-0.5-0.3-0.5-0.6l-0.4-3.9c0-0.2,0-0.4,0.2-0.6
			c0.1-0.1,0.2-0.1,0.3-0.2V37c0-0.4,0.3-0.7,0.6-0.7c0.6-0.1,1.2-0.3,1.8-0.6c0.2-0.1,0.5-0.1,0.7,0c0.2,0.1,0.4,0.4,0.4,0.6l0,4.4
			C35.6,40.8,35.5,40.9,35.4,41.1L35.4,41.1z M36.2,28.6c-1.8,2.6-3.5,3.8-4.3,3.8h-3.9c-0.9,0-2.6-1.2-4.3-3.8
			c-1.4-2.1-2.4-4.3-2.6-6.1l0-0.3l-0.7-0.5c-0.2-0.1-0.3-0.4-0.3-0.6v-1.2c0-0.4,0.3-0.7,0.7-0.7h0.3v-1.3c0-0.3,0.2-0.5,0.4-0.7
			c1-0.5,3-1.3,5.1-1.3c1.7,0,3,0.5,4.1,1.6c1.3,1.4,2.8,2,4.5,2c0.9,0,1.9-0.2,2.9-0.7c0.2-0.1,0.5-0.1,0.7,0.1
			c0.1,0.1,0.2,0.1,0.2,0.2h0.4c0.4,0,0.7,0.3,0.7,0.7v1.2c0,0.2-0.1,0.5-0.3,0.6l-0.7,0.5l0,0.3C38.6,24.3,37.6,26.5,36.2,28.6
			L36.2,28.6z M36.2,28.6"/>
		<path d="M86,81.4c0.3-0.6,0.4-1.3,0.4-2V49.2c0-2.2-1.6-4.1-3.8-4.6l-8.4-1.7c-0.4-0.5-0.9-0.9-1.5-1.1c0.7-0.7,1.2-1.5,1.6-2.1
			c1-1.5,1.9-3.1,2.5-4.6c0.3-0.7,0.5-1.3,0.7-1.9c0.8-0.7,1.3-1.7,1.3-2.7v-2.6c0-0.7-0.2-1.5-0.7-2v-3.6c0-6.3-5.1-11.4-11.4-11.4
			h-3.7c-6.3,0-11.4,5.1-11.4,11.4v3.6c-0.4,0.6-0.7,1.3-0.7,2v2.6c0,1,0.5,2,1.3,2.7c0.2,0.6,0.4,1.3,0.7,1.9
			c0.6,1.5,1.4,3.1,2.5,4.6c0.4,0.6,1,1.4,1.6,2.1c-0.6,0.3-1.1,0.7-1.5,1.1l-8.2,1.7c-2.2,0.4-3.7,2.4-3.7,4.6v30.2
			c0,0.7,0.2,1.4,0.4,2v3.3c0,2.3,1.8,4.1,4.1,4.1c0.8,0,1.6-0.2,2.2-0.7v31.3c0,4.1,3.3,7.3,7.3,7.3c4,0,7.3-3.3,7.3-7.3
			c0,4.1,3.3,7.3,7.3,7.3c4,0,7.3-3.3,7.3-7.3V88.1c0.6,0.4,1.4,0.7,2.2,0.7c2.3,0,4.1-1.8,4.1-4.1V81.4z M62.7,52.3
			c0,0.3-0.2,0.5-0.5,0.6c-0.1,0-0.1,0-0.2,0c-0.2,0-0.4-0.1-0.6-0.3l-2.1-2.7c-0.1-0.1-0.1-0.3-0.1-0.4l0-4.4
			c0-0.3,0.1-0.5,0.4-0.6c0.2-0.1,0.5-0.1,0.7,0c0.6,0.3,1.2,0.5,1.8,0.6c0.3,0.1,0.6,0.4,0.6,0.7v1.8c0.1,0,0.2,0.1,0.3,0.2
			c0.1,0.2,0.2,0.4,0.2,0.6L62.7,52.3z M70.5,49.9l-2.1,2.7c-0.1,0.2-0.4,0.3-0.6,0.3c-0.1,0-0.1,0-0.2,0c-0.3-0.1-0.5-0.3-0.5-0.6
			l-0.4-3.9c0-0.2,0-0.4,0.2-0.6c0.1-0.1,0.2-0.1,0.3-0.2v-1.8c0-0.4,0.3-0.7,0.6-0.7c0.6-0.1,1.2-0.3,1.8-0.6
			c0.2-0.1,0.5-0.1,0.7,0c0.2,0.1,0.4,0.4,0.4,0.6v4.4C70.6,49.6,70.6,49.8,70.5,49.9L70.5,49.9z M71.2,37.4
			c-1.8,2.6-3.5,3.8-4.3,3.8H63c-0.9,0-2.6-1.2-4.3-3.8c-1.4-2.1-2.4-4.3-2.6-6.1l0-0.3l-0.7-0.5c-0.2-0.1-0.3-0.4-0.3-0.6v-1.2
			c0-0.4,0.3-0.7,0.7-0.7h0.3v-1.3c0-0.3,0.2-0.5,0.4-0.7c1-0.5,3-1.3,5.1-1.3c1.7,0,3,0.6,4.1,1.6c1.3,1.4,2.8,2,4.5,2
			c0.9,0,1.9-0.2,2.9-0.7c0.2-0.1,0.5-0.1,0.7,0.1c0.1,0.1,0.2,0.1,0.2,0.2h0.4c0.4,0,0.7,0.3,0.7,0.7V30c0,0.2-0.1,0.5-0.3,0.6
			L73.9,31l0,0.3C73.6,33.1,72.7,35.4,71.2,37.4L71.2,37.4z M71.2,37.4"/>
	</g>
</g>
<g id="Capa_3" class="st0">
	<g id="XMLID_35_" class="st1">
		<path id="XMLID_45_" d="M67,69.7c0-1.2-3.9-27.9-10.2-29.8l-9.1-2.7c-0.2-0.7-0.7-1.2-1.4-1.7c0.7-0.8,1.4-1.7,1.9-2.4
			c1.1-1.6,2.1-3.4,2.7-5.1c0.3-0.7,0.6-1.4,0.8-2.2c0.9-0.7,1.4-1.8,1.4-3V20c0-0.8-0.3-1.6-0.7-2.3v-4c0-7-5.7-12.7-12.7-12.7
			h-4.1c-7,0-12.7,5.7-12.7,12.7v4c-0.5,0.7-0.7,1.5-0.7,2.3v2.8c0,1.2,0.5,2.3,1.4,3c0.2,0.7,0.5,1.4,0.8,2.2
			c0.7,1.7,1.6,3.5,2.7,5.1c0.5,0.7,1.1,1.5,1.9,2.4c-0.7,0.5-1.2,1.1-1.4,1.7l-9.1,2.7C12.1,41.8,8.3,69.3,8.3,69.3h0
			c0,0.1,0,0.2,0,0.4c0,1.3,1.1,2.4,2.4,2.4h53.9C65.9,72.1,67,71,67,69.7L67,69.7z M35.2,47.1c0,0.3-0.3,0.6-0.6,0.7
			c-0.1,0-0.1,0-0.2,0c-0.3,0-0.5-0.1-0.7-0.3l-2.3-3c-0.1-0.1-0.2-0.3-0.2-0.5l0-4.9c0-0.3,0.2-0.6,0.4-0.7c0.2-0.1,0.5-0.2,0.8,0
			c0.7,0.4,1.3,0.6,2,0.7c0.4,0.1,0.7,0.4,0.7,0.8v2c0.1,0,0.2,0.1,0.3,0.2c0.2,0.2,0.2,0.4,0.2,0.6L35.2,47.1z M43.8,44.4l-2.3,3
			c-0.2,0.2-0.4,0.3-0.7,0.3c-0.1,0-0.1,0-0.2,0c-0.3-0.1-0.6-0.4-0.6-0.7l-0.4-4.3c0-0.2,0.1-0.5,0.2-0.6c0.1-0.1,0.2-0.2,0.3-0.2
			v-2c0-0.4,0.3-0.7,0.7-0.8c0.6-0.1,1.3-0.4,2-0.7c0.3-0.1,0.6-0.1,0.8,0c0.2,0.1,0.4,0.4,0.4,0.7V44C44,44.1,43.9,44.3,43.8,44.4
			L43.8,44.4z M39.8,34.8h-4.4c-1,0-2.8-1.3-4.8-4.2c-1.6-2.3-2.7-4.8-2.9-6.7l0-0.3L26.9,23c-0.2-0.1-0.4-0.4-0.4-0.7V21
			c0-0.5,0.4-0.8,0.8-0.8h0.3v-1.5c0-0.3,0.2-0.6,0.5-0.7c1.1-0.6,3.3-1.5,5.7-1.5c1.8,0,3.4,0.6,4.5,1.8c1.5,1.5,3.1,2.3,5,2.3
			c1,0,2.1-0.2,3.2-0.7c0.3-0.1,0.5-0.1,0.8,0.1c0.1,0.1,0.2,0.2,0.3,0.3H48c0.5,0,0.8,0.4,0.8,0.8v1.3c0,0.3-0.1,0.5-0.4,0.7
			l-0.8,0.5l0,0.3c-0.3,1.9-1.4,4.5-2.9,6.7C42.7,33.5,40.8,34.8,39.8,34.8L39.8,34.8z M39.8,34.8"/>
		<path id="XMLID_39_" d="M110,93.2l-9.1-2.7c-0.2-0.7-0.7-1.2-1.4-1.7c0.7-0.8,1.4-1.7,1.9-2.4c1.1-1.6,2.1-3.4,2.7-5.1
			c0.3-0.7,0.6-1.4,0.8-2.2c0.9-0.7,1.4-1.8,1.4-3v-2.8c0-0.8-0.3-1.6-0.7-2.3v-4c0-7-5.7-12.7-12.7-12.7h-4.1
			c-7,0-12.7,5.7-12.7,12.7v4c-0.5,0.7-0.7,1.5-0.7,2.3v2.8c0,1.2,0.5,2.3,1.4,3c0.2,0.7,0.5,1.4,0.8,2.2c0.7,1.7,1.6,3.5,2.7,5.1
			c0.5,0.7,1.1,1.5,1.9,2.4c-0.7,0.5-1.2,1.1-1.4,1.7l-9.1,2.7c-6.4,1.8-10.2,29.4-10.2,29.4h0c0,0.1,0,0.2,0,0.4
			c0,1.3,1.1,2.4,2.4,2.4h53.9c1.3,0,2.4-1.1,2.4-2.4C120.3,121.8,116.4,95,110,93.2L110,93.2z M88.5,100.3c0,0.3-0.3,0.6-0.6,0.7
			c-0.1,0-0.1,0-0.2,0c-0.3,0-0.5-0.1-0.7-0.3l-2.3-3c-0.1-0.1-0.2-0.3-0.2-0.5l0-4.9c0-0.3,0.2-0.6,0.4-0.7c0.2-0.1,0.5-0.2,0.8,0
			c0.7,0.4,1.3,0.6,2,0.7c0.4,0.1,0.7,0.4,0.7,0.8v2c0.1,0,0.2,0.1,0.3,0.2c0.2,0.2,0.2,0.4,0.2,0.6L88.5,100.3z M97.1,97.7l-2.3,3
			c-0.2,0.2-0.4,0.3-0.7,0.3c-0.1,0-0.1,0-0.2,0c-0.3-0.1-0.6-0.4-0.6-0.7L92.9,96c0-0.2,0.1-0.5,0.2-0.6c0.1-0.1,0.2-0.2,0.3-0.2
			v-2c0-0.4,0.3-0.7,0.7-0.8c0.6-0.1,1.3-0.4,2-0.7c0.3-0.1,0.6-0.1,0.8,0c0.2,0.1,0.4,0.4,0.4,0.7v4.9
			C97.2,97.4,97.2,97.6,97.1,97.7L97.1,97.7z M93.1,88h-4.4c-1,0-2.8-1.3-4.8-4.2c-1.6-2.3-2.7-4.8-2.9-6.7l0-0.3l-0.8-0.5
			c-0.2-0.1-0.4-0.4-0.4-0.7v-1.3c0-0.4,0.4-0.8,0.8-0.8h0.3v-1.5c0-0.3,0.2-0.6,0.5-0.7c1.1-0.6,3.3-1.5,5.7-1.5
			c1.8,0,3.4,0.6,4.5,1.8c1.5,1.5,3.1,2.3,5,2.3c1,0,2.1-0.2,3.2-0.7c0.3-0.1,0.5-0.1,0.8,0.1c0.1,0.1,0.2,0.2,0.3,0.3h0.4
			c0.4,0,0.8,0.4,0.8,0.8v1.3c0,0.3-0.1,0.5-0.4,0.7l-0.8,0.5l0,0.3c-0.3,1.9-1.3,4.5-2.9,6.7C95.9,86.7,94.1,88,93.1,88L93.1,88z
			 M93.1,88"/>
		<path id="XMLID_36_" d="M59.7,18.7c0.8-0.1,1.5-0.1,2.2,0.1c2.1,0.5,3.9,2,5.4,4.6c1.6,2.9,2.6,6.1,3.3,8.6l0.6,2.1l-4.8,2.4
			c-0.6,0.3-0.9,0.9-0.9,1.5c0,0.6,0.3,1.2,0.9,1.5l18.1,9.4c0.2,0.1,0.5,0.2,0.8,0.2c0.3,0,0.5-0.1,0.8-0.2
			c0.5-0.2,0.8-0.7,0.9-1.2l3.2-20.2c0.1-0.6-0.2-1.2-0.7-1.6c-0.5-0.4-1.2-0.4-1.7-0.1l-4.2,2.1l-1.3-1.6
			C75.1,18.2,68.9,14,63.7,14c-0.1,0-0.1,0-0.2,0c-1.8,0-3.4,0.6-4.9,1.6c-0.6,0.4-0.9,1.3-0.6,2C58.2,18.3,59,18.8,59.7,18.7
			L59.7,18.7z M59.7,18.7"/>
	</g>
</g>
<g id="Capa_4" class="st0">
	<g id="XMLID_53_" class="st1">
		<path id="XMLID_54_" d="M68.5,12h-2.7c-1.5,0-2.6-1.2-2.6-2.6V9.3c0-3.4-2.7-6.1-6.1-6.1h-0.1c-3.4,0-6.1,2.7-6.1,6.1v0.1
			c0,1.5-1.2,2.6-2.6,2.6h-2.7c-2.9,0-5.2,2.3-5.2,5.2v0.1c0,2.9,2.4,5.2,5.2,5.2h23.1c2.9,0,5.2-2.3,5.2-5.2v-0.1
			C73.8,14.3,71.4,12,68.5,12L68.5,12z M57,12c-1.5,0-2.7-1.2-2.7-2.7s1.2-2.7,2.7-2.7c1.5,0,2.7,1.2,2.7,2.7S58.4,12,57,12L57,12z
			 M68.8,114.5H24.3c-3.9,0-7.1-3.2-7.1-7.1V22.6c0-3.9,3.2-7.1,5.3-7.1h14.3c-0.1,0.6-0.2,1.2-0.2,1.8c0,4.8,3.9,8.8,8.8,8.8h23.1
			c4.8,0,8.8-3.9,8.8-8.9c0-0.6-0.1-1.2-0.2-1.7h10.8c5.7,0,8.8,3.2,8.8,7.1v53.1c-0.6,0-1.2-0.1-1.8-0.1c-2.4,0-4.8,0.3-7.1,0.9V35
			H26v70.7h40.7C67,108.7,67.6,111.7,68.8,114.5L68.8,114.5z M79.1,65H50.8c-1,0-1.8-0.8-1.8-1.8v-1.8c0-1,0.8-1.8,1.8-1.8h28.3
			c1,0,1.8,0.8,1.8,1.8v1.8C80.8,64.2,80,65,79.1,65L79.1,65z M79.1,49.1H50.8c-1,0-1.8-0.8-1.8-1.8v-1.8c0-1,0.8-1.8,1.8-1.8h28.3
			c1,0,1.8,0.8,1.8,1.8v1.8C80.8,48.3,80,49.1,79.1,49.1L79.1,49.1z M70.2,79.1H50.8c-1,0-1.8-0.8-1.8-1.8v-1.8c0-1,0.8-1.8,1.8-1.8
			h19.4c1,0,1.8,0.8,1.8,1.8v1.8C72,78.3,71.2,79.1,70.2,79.1L70.2,79.1z M66.7,95H50.8c-1,0-1.8-0.8-1.8-1.8v-1.8
			c0-1,0.8-1.8,1.8-1.8h15.9c1,0,1.8,0.8,1.8,1.8v1.8C68.5,94.3,67.7,95,66.7,95L66.7,95z M45.6,42.6l-6.5,7.3
			c-0.3,0.4-0.8,0.5-1.2,0.5c-0.4,0-0.7-0.1-1-0.4l-4.1-3.3c-0.7-0.6-0.8-1.6-0.3-2.3c0.6-0.7,1.6-0.8,2.3-0.3l2.9,2.3l5.5-6.2
			c0.6-0.7,1.6-0.7,2.3-0.1C46.2,40.9,46.2,41.9,45.6,42.6L45.6,42.6z M45.6,58.3l-6.5,7.3c-0.3,0.4-0.8,0.5-1.2,0.5
			c-0.4,0-0.7-0.1-1-0.4l-4.1-3.3C32.1,62,32,61,32.6,60.3c0.6-0.7,1.6-0.8,2.3-0.3l2.9,2.3l5.5-6.2c0.6-0.7,1.6-0.7,2.3-0.1
			C46.2,56.6,46.2,57.6,45.6,58.3L45.6,58.3z M45.6,73.3l-6.5,7.3c-0.3,0.4-0.8,0.5-1.2,0.5c-0.4,0-0.7-0.1-1-0.4l-4.1-3.3
			C32.1,77,32,76,32.6,75.3c0.6-0.7,1.6-0.8,2.3-0.3l2.9,2.3l5.5-6.2c0.6-0.7,1.6-0.7,2.3-0.1C46.2,71.6,46.2,72.6,45.6,73.3
			L45.6,73.3z M45.6,88.5l-6.5,7.3c-0.3,0.4-0.8,0.5-1.2,0.5c-0.4,0-0.7-0.1-1-0.4l-4.1-3.3c-0.7-0.6-0.8-1.6-0.3-2.3
			c0.6-0.7,1.6-0.8,2.3-0.3l2.9,2.3l5.5-6.2c0.6-0.7,1.6-0.7,2.3-0.1C46.2,86.8,46.2,87.8,45.6,88.5L45.6,88.5z M45.6,88.5
			 M105.4,104.8l-6.6-1.8c11.2,0,4.9-23.6-5.9-23.6h-3c-12.6,0-16.5,23.6-5.9,23.6l-6.6,1.8C72.8,106,70,124,70,124
			c0,0.1,0,0.1,0,0.2c0,0.9,0.8,1.6,1.8,1.6h39.4c1,0,1.8-0.7,1.8-1.6c0-0.1,0-0.1,0-0.2C112.9,124,110.1,106,105.4,104.8
			L105.4,104.8z M87.2,103.9c0.2-0.1,0.4-0.1,0.6,0c0.7,0.3,1.3,0.5,2,0.5h3.3c0.6,0,1.3-0.2,2-0.5c0.2-0.1,0.4-0.1,0.6,0
			c0.2,0.1,0.3,0.3,0.2,0.5l-0.4,3.1c0,0.1,0,0.1-0.1,0.2l-3.5,6.7c-0.1,0.2-0.3,0.3-0.5,0.3c-0.2,0-0.4-0.1-0.5-0.3l-3.5-6.7
			c0-0.1,0-0.1-0.1-0.2l-0.4-3.1C86.9,104.2,87,104,87.2,103.9L87.2,103.9z M83.6,93.7c-0.2-0.1-0.3-0.3-0.3-0.4v-0.9
			c0-0.3,0.3-0.5,0.6-0.5h0.2V90c0-0.2,0.1-0.4,0.3-0.5c0.2-0.1,0.4-0.1,0.6,0c0.9,0.4,2.1,0.5,3,0.5c0.6,0,1.1,0,1.6,0
			c0.2,0,0.3,0,0.5,0c0.2,0,0.4,0,0.6,0c2.5,0,4.5,0.6,6,1c0.7,0.2,1.2,0.3,1.6,0.4c0.3,0,0.5,0.3,0.5,0.5v0H99
			c0.3,0,0.6,0.2,0.6,0.5v0.9c0,0.2-0.1,0.3-0.3,0.4l-0.6,0.3l0,0.2c-0.2,1.3-1,2.9-2.1,4.4c-1.5,1.9-2.8,2.7-3.5,2.7h-3.2
			c-0.7,0-2.1-0.8-3.5-2.7c-1.2-1.5-1.9-3.1-2.1-4.4l0-0.2L83.6,93.7z M83.6,93.7 M69.8,114.5H53.9c-1,0-1.8-1.3-1.8-2.9v-2.9
			c0-1.6,0.8-2.9,1.8-2.9h15.9c1,0,1.8,1.3,1.8,2.9v2.9C71.6,113.2,70.8,114.5,69.8,114.5L69.8,114.5z M87.8,76.6l0.1-15.9
			c0-1,1.3-1.8,3-1.8l2.9,0c1.6,0,2.9,0.8,2.9,1.8l-0.1,15.9c0,1-1.3,1.8-3,1.8l-2.9,0C89.1,78.4,87.8,77.6,87.8,76.6L87.8,76.6z"/>
	</g>
</g>
<g id="Capa_5" class="st0">
	<g id="XMLID_67_" class="st1">
		<path id="XMLID_68_" d="M49.2,62.2L68,79.7l-23.4,25L25.8,87.2l4.9-5.3l4.6,4.3l2.3-2.5l-4.6-4.3l7.4-7.9l4.5,4.2l2.3-2.5
			l-4.4-4.2L49.2,62.2z M68.9,50.8l-4.5-4.2L62.1,49l4.5,4.2L68.9,50.8z M77.4,41.2l-4.5-4.2l-2.3,2.5l4.5,4.2L77.4,41.2z
			 M104.1,28.5l-6,6.4l13.2,12.4L45.3,118l-13.9-13l-15.5,16.6l-11.7,2.6l22.2-23.8L12.8,87.6l66.1-70.7l14.7,13.8l6-6.4l-12.9-12
			L95,3.4l28,26.2l-8.4,8.9L104.1,28.5z M94.4,38.9L67.7,67.5l6.3,5.9l-3.6,3.8L51.7,59.6l3.6-3.8l8,7.4l26.7-28.6L79.1,24.6
			L20.4,87.3l24.6,23l58.7-62.8L94.4,38.9z M94.4,38.9"/>
	</g>
</g>
<g id="Capa_6">
	<g id="XMLID_97_">
		<path id="XMLID_135_" d="M113.5,13.1c-2-3.2-4-6.4-6-9.5c-0.4-0.6-0.8-1.7-1.7-1.7H20.7c-0.3,0-0.7,0.2-0.9,0.5
			c-1.4,2.6-2.9,5.2-4.4,7.9c-0.8,1.4-1.5,2.8-2.3,4.2c-0.2,0.4-0.5,0.8-0.5,1.2v96.4c0,0.5,0.4,0.9,0.7,1.3c1,1.2,1.9,2.4,2.8,3.6
			c2.1,2.7,4.3,5.4,6.4,8.1c0.6,0.8,1.6,0.6,2.5,0.6h77.7c0.2,0,0.3,0,0.5-0.1c0.1,0,0.1-0.1,0.1-0.1c0.1,0,0.1-0.1,0.2-0.1
			c1.9-2.1,3.9-4.2,5.8-6.2c1.3-1.4,2.5-2.7,3.8-4.1c0.5-0.5,1.7-1.5,1.7-2.3V16.1C114.9,14.9,114.1,14.1,113.5,13.1L113.5,13.1z
			 M106.9,110.4H20.7V5.6h86.2V110.4z M106.9,110.4"/>
		<path id="XMLID_131_" d="M49.3,41.5c6.4,0.3,22.8-0.2,29.6,0c5,0.1,9.6-3.5,9.1-8.9c-0.4-5.5,0-26.7,0-26.7H65.6
			c-1.1-0.1-2.1-0.1-3.1,0H39.9v26.7C39.9,37.1,42.9,41.2,49.3,41.5L49.3,41.5z M47.2,22.5c0.2-5.7,4.1-10.6,9.1-13
			c10.3-5,24.3,1.7,24.4,13.7c-0.1,5.8-3.5,10.7-8.5,13.4c-5.3,2.8-11.9,2.6-17.1-0.3C50.1,33.4,47,28.2,47.2,22.5L47.2,22.5z
			 M47.2,22.5"/>
		<path id="XMLID_128_" d="M72.6,56.7c-2.4,0-3.3,0.8-3.3,2.8c1.2,4.5,7.1,6.8,7.1,8.5c0,0.2-0.2,3.8-2.6,5.3
			c-0.2,0.2-1.7,0.4-2.2,3.3c-0.2,1,1.9,4.7,4.1,4.7c5.6,0,10.1-5.5,10.1-12.3c0-3.4-1.1-7.6-3.7-9.8C79.5,57,75.4,56.7,72.6,56.7
			L72.6,56.7z M72.6,56.7"/>
		<path id="XMLID_125_" d="M73,52.3c0,1.7-0.7,3.2-1.6,3.2c-0.9,0-1.6-1.4-1.6-3.2c0-1.7,0.7-3.2,1.6-3.2C72.2,49.1,73,50.5,73,52.3
			L73,52.3z M73,52.3"/>
		<path id="XMLID_122_" d="M76.6,52.3c0,1.4-0.6,2.5-1.3,2.5c-0.7,0-1.3-1.1-1.3-2.5c0-1.4,0.6-2.5,1.3-2.5
			C76.1,49.7,76.6,50.9,76.6,52.3L76.6,52.3z M76.6,52.3"/>
		<path id="XMLID_119_" d="M83.4,55.5c0,0.9-0.4,1.7-0.8,1.7c-0.5,0-0.8-0.7-0.8-1.7c0-0.9,0.4-1.7,0.8-1.7
			C83,53.8,83.4,54.5,83.4,55.5L83.4,55.5z M83.4,55.5"/>
		<path id="XMLID_116_" d="M80.4,53.9c0,1.1-0.5,2-1,2c-0.6,0-1-0.9-1-2s0.5-2,1-2C79.9,51.8,80.4,52.7,80.4,53.9L80.4,53.9z
			 M80.4,53.9"/>
		<path id="XMLID_113_" d="M50.5,81.3c2.2,0,4.3-3.7,4.1-4.7c-0.5-2.9-2.1-3.1-2.2-3.3c-2.4-1.5-2.6-5.1-2.6-5.3
			c0-1.6,5.9-4,7.1-8.5c0-2-0.9-2.8-3.3-2.8c-2.8,0-7,0.3-9.6,2.5c-2.6,2.2-3.7,6.4-3.7,9.8C40.4,75.8,44.9,81.3,50.5,81.3
			L50.5,81.3z M50.5,81.3"/>
		<path id="XMLID_110_" d="M56.5,52.3c0,1.7-0.7,3.2-1.6,3.2c-0.9,0-1.6-1.4-1.6-3.2c0-1.7,0.7-3.2,1.6-3.2
			C55.7,49.1,56.5,50.5,56.5,52.3L56.5,52.3z M56.5,52.3"/>
		<path id="XMLID_107_" d="M52.1,52.3c0,1.4-0.6,2.5-1.3,2.5c-0.7,0-1.3-1.1-1.3-2.5c0-1.4,0.6-2.5,1.3-2.5
			C51.5,49.7,52.1,50.9,52.1,52.3L52.1,52.3z M52.1,52.3"/>
		<path id="XMLID_104_" d="M44.4,55.5c0,0.9-0.4,1.7-0.8,1.7c-0.5,0-0.8-0.7-0.8-1.7c0-0.9,0.4-1.7,0.8-1.7
			C44.1,53.8,44.4,54.5,44.4,55.5L44.4,55.5z M44.4,55.5"/>
		<path id="XMLID_101_" d="M47.8,53.9c0,1.1-0.5,2-1,2c-0.6,0-1-0.9-1-2s0.5-2,1-2C47.4,51.8,47.8,52.7,47.8,53.9L47.8,53.9z
			 M47.8,53.9"/>
		<path id="XMLID_98_" d="M64,33.2c2.2,0,4-1.8,4-4c0-1.5-0.9-2.9-2.2-3.5c-0.1-1.2-0.3-2.4-0.4-3.6c-0.3-3.1-0.6-6.2-1.2-9.2
			c-0.1-0.6-0.9-0.4-1,0.1c-0.4,4.2-0.7,8.4-1,12.6c-1.3,0.7-2.2,2-2.2,3.6C60,31.4,61.7,33.2,64,33.2L64,33.2z M64,33.2"/>
	</g>
	<g id="XMLID_105_">
		<g id="XMLID_106_">
			<defs>
				
					<rect id="XMLID_96_" x="30.3" y="67.2" transform="matrix(0.7132 -0.7009 0.7009 0.7132 -51.732 72.6827)" width="65.4" height="64.8"/>
			</defs>
			<clipPath id="XMLID_134_">
				<use xlink:href="#XMLID_96_"  style="overflow:visible;"/>
			</clipPath>
			<path id="XMLID_109_" class="st2" d="M98.5,109.3c0.5,0,1-0.2,1.3-0.5c0.4-0.3,0.6-0.8,0.6-1.3l0.2-15.4c0-1-0.8-1.8-1.8-1.9
				l-70.5-0.3c-0.5,0-1,0.2-1.3,0.5c-0.4,0.3-0.6,0.8-0.6,1.3l-0.2,15.4c0,1,0.8,1.8,1.8,1.8L98.5,109.3z M98.6,107
				c0,0.2-0.2,0.4-0.4,0.4l-69.7-0.3c-0.1,0-0.2,0-0.3-0.1c-0.1-0.1-0.1-0.2-0.1-0.3l0.2-14.6c0-0.1,0-0.2,0.1-0.3
				c0.1-0.1,0.2-0.1,0.3-0.1l1.6,0l-0.1,10.7c0,0.4,0.3,0.8,0.7,0.8c0.4,0,0.8-0.3,0.8-0.8l0.1-10.7l3.3,0l-0.1,6.9
				c0,0.4,0.3,0.8,0.7,0.8c0.4,0,0.8-0.3,0.8-0.8l0.1-6.9l2.7,0l-0.1,6.9c0,0.4,0.3,0.8,0.7,0.8c0.4,0,0.8-0.3,0.8-0.8l0.1-6.9
				l2.6,0l-0.1,6.9c0,0.4,0.3,0.8,0.7,0.8c0.4,0,0.8-0.3,0.8-0.8l0.1-6.9l3,0l-0.2,10.7c0,0.4,0.3,0.8,0.8,0.8
				c0.4,0,0.8-0.3,0.8-0.8l0.1-10.7l2.1,0L51.5,99c0,0.4,0.3,0.8,0.8,0.8c0.4,0,0.8-0.3,0.8-0.8l0.1-7.2l2.7,0l-0.1,7.2
				c0,0.4,0.3,0.8,0.7,0.8c0.4,0,0.8-0.3,0.8-0.8l0.1-7.2l2.6,0l-0.1,7.2c0,0.4,0.3,0.8,0.7,0.8c0.4,0,0.8-0.3,0.8-0.8l0.1-7.2l3,0
				l-0.2,10.7c0,0.4,0.3,0.8,0.8,0.8c0.4,0,0.8-0.3,0.8-0.8l0.1-10.7l3.3,0l-0.1,6.9c0,0.4,0.3,0.8,0.7,0.8c0.4,0,0.8-0.3,0.8-0.8
				l0.1-6.9l2.7,0l-0.1,6.9c0,0.4,0.3,0.8,0.7,0.8c0.4,0,0.8-0.3,0.8-0.8l0.1-6.9l2.6,0l-0.1,6.9c0,0.4,0.3,0.8,0.7,0.8
				c0.4,0,0.8-0.3,0.8-0.8l0.1-6.9l3,0l-0.1,10.7c0,0.4,0.3,0.8,0.7,0.8c0.4,0,0.8-0.3,0.8-0.8L83.8,92l2.1,0l-0.1,7.2
				c0,0.4,0.3,0.8,0.7,0.8c0.4,0,0.8-0.3,0.8-0.8l0.1-7.2l2.7,0L90,99.2c0,0.4,0.3,0.8,0.7,0.8c0.4,0,0.8-0.3,0.8-0.8l0.1-7.2l2.6,0
				l-0.1,7.2c0,0.4,0.3,0.8,0.7,0.8c0.4,0,0.8-0.3,0.8-0.8l0.1-7.2l2.7,0c0.2,0,0.4,0.2,0.3,0.4L98.6,107z M98.6,107"/>
		</g>
	</g>
</g>
<g id="Capa_7" class="st0">
	<g id="XMLID_132_" class="st1">
		<path id="XMLID_133_" d="M123.6,113.2H122c-0.8,0-0.8-1.1-0.8-1.1V33.4c0-2-1.4-3.6-3.2-3.6H93.4c-0.9,0-0.8-0.9-0.8-0.9V13.7
			c0-0.2,0.1-0.3,0.5-0.3c1,0,1.8-0.9,1.8-2V7.8c0-1.1-0.8-2-1.8-2H36c-1,0-1.8,0.9-1.8,2v3.6c0,1.1,0.8,2,1.8,2
			c0.5,0,0.5,0.5,0.5,0.6v14.5c0,0,0.1,1.3-0.7,1.3H9.3c-1.7,0-3.2,1.6-3.2,3.6v78.9c0,0.7-0.4,0.9-1.1,0.9H3.8c-1,0-1.8,0.9-1.8,2
			v4.1c0,1.1,0.8,2,1.8,2h119.8c1,0,1.8-0.9,1.8-2v-4.1C125.3,114.1,124.5,113.2,123.6,113.2L123.6,113.2z M71.3,47.1h10.6
			c0.8,0,1.4,0.7,1.4,1.6v12c0,0.9-0.6,1.6-1.4,1.6H71.3c-0.8,0-1.4-0.7-1.4-1.6v-12C69.9,47.8,70.5,47.1,71.3,47.1L71.3,47.1z
			 M69.9,39.6v-12c0-0.9,0.6-1.6,1.4-1.6h10.6c0.8,0,1.4,0.7,1.4,1.6v12c0,0.9-0.6,1.6-1.4,1.6H71.3C70.5,41.2,69.9,40.5,69.9,39.6
			L69.9,39.6z M71.3,67.3h10.6c0.8,0,1.4,0.7,1.4,1.6v12c0,0.9-0.6,1.6-1.4,1.6H71.3c-0.8,0-1.4-0.7-1.4-1.6v-12
			C69.9,68,70.5,67.3,71.3,67.3L71.3,67.3z M72.9,91.4c0.8,0,1.4,0.7,1.4,1.6v18.5c0,0.9-0.6,1.6-1.4,1.6H56.5
			c-0.8,0-1.4-0.7-1.4-1.6V93c0-0.9,0.6-1.6,1.4-1.6H72.9z M59.2,39.6c0,0.9-0.6,1.6-1.4,1.6H47.2c-0.8,0-1.4-0.7-1.4-1.6v-12
			c0-0.9,0.6-1.6,1.4-1.6h10.6c0.8,0,1.4,0.7,1.4,1.6V39.6z M47.2,47.1h10.6c0.8,0,1.4,0.7,1.4,1.6v12c0,0.9-0.6,1.6-1.4,1.6H47.2
			c-0.8,0-1.4-0.7-1.4-1.6v-12C45.8,47.8,46.5,47.1,47.2,47.1L47.2,47.1z M47.2,67.3h10.6c0.8,0,1.4,0.7,1.4,1.6v12
			c0,0.9-0.6,1.6-1.4,1.6H47.2c-0.8,0-1.4-0.7-1.4-1.6v-12C45.8,68,46.5,67.3,47.2,67.3L47.2,67.3z M96.7,48.3
			c0-0.9,0.6-1.6,1.4-1.6h10.6c0.8,0,1.4,0.7,1.4,1.6v12c0,0.9-0.6,1.6-1.4,1.6H98.2c-0.8,0-1.4-0.7-1.4-1.6V48.3z M96.7,69.3
			c0-0.9,0.6-1.6,1.4-1.6h10.6c0.8,0,1.4,0.7,1.4,1.6v12c0,0.9-0.6,1.6-1.4,1.6H98.2c-0.8,0-1.4-0.7-1.4-1.6V69.3z M96.7,89.5
			c0-0.9,0.6-1.6,1.4-1.6h10.6c0.8,0,1.4,0.7,1.4,1.6v12c0,0.9-0.6,1.6-1.4,1.6H98.2c-0.8,0-1.4-0.7-1.4-1.6V89.5z M17.2,48.3
			c0-0.9,0.6-1.6,1.4-1.6h10.6c0.8,0,1.4,0.7,1.4,1.6v12c0,0.9-0.6,1.6-1.4,1.6H18.6c-0.8,0-1.4-0.7-1.4-1.6V48.3z M17.2,69.3
			c0-0.9,0.6-1.6,1.4-1.6h10.6c0.8,0,1.4,0.7,1.4,1.6v12c0,0.9-0.6,1.6-1.4,1.6H18.6c-0.8,0-1.4-0.7-1.4-1.6V69.3z M17.2,89.5
			c0-0.9,0.6-1.6,1.4-1.6h10.6c0.8,0,1.4,0.7,1.4,1.6v12c0,0.9-0.6,1.6-1.4,1.6H18.6c-0.8,0-1.4-0.7-1.4-1.6V89.5z M17.2,89.5"/>
	</g>
</g>
<g id="Capa_8" class="st0">
	<g id="XMLID_161_" class="st1">
		<g id="XMLID_166_">
			<defs>
				<rect id="XMLID_154_" x="26.2" y="4" width="67.6" height="111"/>
			</defs>
			<clipPath id="XMLID_136_">
				<use xlink:href="#XMLID_154_"  style="overflow:visible;"/>
			</clipPath>
			<path id="XMLID_172_" class="st3" d="M69.8,23.3c5.3,0,9.6-4.3,9.6-9.6c0-5.3-4.3-9.6-9.6-9.6c-5.3,0-9.6,4.3-9.6,9.6
				C60.1,18.9,64.5,23.3,69.8,23.3L69.8,23.3z M69.8,23.3"/>
			<path id="XMLID_168_" class="st3" d="M79.7,24.9h-5.3l-4.6,7.6l-4.6-7.6h-5.5c0,0-12.7-0.2-13.6,10.8v1.4l-5-3.4l-0.6-0.4
				c-1.1-0.8-1.8-1.2-2.9-1.2L27.9,6.5l-1.7,0.6l9.6,25.2c-0.5,0.2-1,0.5-1.4,0.9c-1.7,1.7-1.6,4.4,0.1,6.1c0,0,2.8,1.9,2.8,1.9
				l3.8,2.6l7.3,4.9c0.5,0.3,1.2,0.5,1.9,0.5v0c2.3,0,4.2-1.9,4.2-4.2v-7.5h2.7l0,18h25.3l0-17.9h2.6v22.7h0c0,0.1,0,0.1,0,0.2
				c0,2.3,1.9,4.2,4.2,4.2c2.3,0,4.2-1.9,4.2-4.2c0,0,0-0.1,0-0.2h0V35.7C93.5,35.7,94,25.2,79.7,24.9L79.7,24.9z M69.8,50.6
				L67,36.5l2.8-3.6l3.2,3.6L69.8,50.6z M69.8,50.6"/>
		</g>
		<path id="XMLID_163_" d="M57.2,58.4l0,50.7c0,3.1,2.5,5.7,5.7,5.7c3.1,0,5.6-2.5,5.7-5.6l0,0V62.9h2.5v46.2c0,3.1,2.6,5.7,5.7,5.7
			c3.1,0,5.7-2.6,5.7-5.7l0-50.7L57.2,58.4z M57.2,58.4"/>
		<rect id="XMLID_151_" x="67.3" y="56.1" width="4.9" height="1.7"/>
	</g>
</g>
<g id="Capa_9" class="st0">
	<g id="XMLID_178_" class="st1">
		<path id="XMLID_194_" d="M75.9,73.9H14V14.8h61.9v22.6l5.4,1.1V14c1.6-0.9,2.7-2.6,2.7-4.6c0-3-2.4-5.4-5.4-5.4H11.3
			c-3,0-5.4,2.4-5.4,5.4c0,2,1.1,3.7,2.7,4.6v62.6c0,1.5,1.2,2.7,2.7,2.7h16.6l-9.7,36.3c-0.8,2.9,0.9,5.8,3.8,6.6
			c0.5,0.1,0.9,0.2,1.4,0.2c2.4,0,4.5-1.6,5.2-4l10.4-39h11.8l10.4,39c0.6,2.4,2.8,4,5.2,4c0.5,0,0.9-0.1,1.4-0.2
			c2.9-0.8,4.6-3.7,3.8-6.6L62,79.3h16.6c1.5,0,2.7-1.2,2.7-2.7V60.5l-5.4-1.2V73.9z M75.9,73.9"/>
		<path id="XMLID_191_" d="M98.8,43c5.3,0,9.6-4.3,9.6-9.5c0-5.3-4.3-9.6-9.6-9.6c-5.3,0-9.5,4.3-9.5,9.6C89.2,38.7,93.5,43,98.8,43
			L98.8,43z M98.8,43"/>
		<path id="XMLID_188_" d="M120,74.7l-8.5-25.6c-0.7-2.1-2.4-3.4-4.3-3.4h-4.5c-1.3,0-2.4,0.7-3.2,1.6l2.2,18.4l-3.3,3.2l-3.3-3.2
			l2.2-18.4c-0.8-1-1.9-1.6-3.2-1.6h-4l-26.5-6.6c-2.5-0.6-4.9,1.2-5.5,4.1c-0.5,2.9,1.1,5.8,3.5,6.4l26.9,6.7
			c0.3,0.1,0.6,0.1,0.8,0.1v24.9l-1.8,35.3c-0.1,3,1.8,5.5,4.3,5.7c0.1,0,0.2,0,0.3,0c2.4,0,4.5-2.2,4.6-5.1L98.4,87l1.5,30.3
			c0.1,2.9,2.2,5.1,4.6,5.1c0.1,0,0.2,0,0.3,0c2.5-0.2,4.5-2.7,4.3-5.7l-1.8-35.3v-15l4.1,12.2c0.9,2.8,3.6,4.1,6,3.1
			C119.8,80.6,120.9,77.5,120,74.7L120,74.7z M120,74.7"/>
	</g>
	<g class="st1">
		<path id="XMLID_162_" d="M19.9,22.5h24.1c0.9,0,1.7,0.8,1.7,1.7v15.4h8c0.9,0,1.7,0.8,1.7,1.7v17.1c0,0.9-0.8,1.7-1.7,1.7H19.9
			c-0.9,0-1.7-0.8-1.7-1.7V24.2C18.2,23.3,19,22.5,19.9,22.5L19.9,22.5z M42.4,25.9H21.6v12.5l6.4-3.6c0.5-0.3,1.1-0.3,1.6,0
			l8.5,4.8h4.2V25.9z M52.1,43H39.4v13.7h12.7V43z M21.6,56.7H36V42.3l-7.2-4l-7.2,4L21.6,56.7L21.6,56.7z M21.6,56.7"/>
		<path d="M68.1,96.6h-2.6c-0.2,0-0.4,0.2-0.4,0.4v2.6c0,0.2,0.2,0.4,0.4,0.4h2.6c0.2,0,0.4-0.2,0.4-0.4v-2.6
			C68.5,96.8,68.4,96.6,68.1,96.6L68.1,96.6z M68.1,96.6"/>
		<path d="M74.1,96.6h-2.6c-0.2,0-0.4,0.2-0.4,0.4v2.6c0,0.2,0.2,0.4,0.4,0.4h2.6c0.2,0,0.4-0.2,0.4-0.4v-2.6
			C74.5,96.8,74.3,96.6,74.1,96.6L74.1,96.6z M74.1,96.6"/>
		<path d="M68.1,102.6h-2.6c-0.2,0-0.4,0.2-0.4,0.4v2.6c0,0.2,0.2,0.4,0.4,0.4h2.6c0.2,0,0.4-0.2,0.4-0.4v-2.6
			C68.5,102.8,68.4,102.6,68.1,102.6L68.1,102.6z M68.1,102.6"/>
		<path d="M74.1,102.6h-2.6c-0.2,0-0.4,0.2-0.4,0.4v2.6c0,0.2,0.2,0.4,0.4,0.4h2.6c0.2,0,0.4-0.2,0.4-0.4v-2.6
			C74.5,102.8,74.3,102.6,74.1,102.6L74.1,102.6z M74.1,102.6"/>
		<path d="M85.2,96.6h-2.6c-0.2,0-0.4,0.2-0.4,0.4v2.6c0,0.2,0.2,0.4,0.4,0.4h2.6c0.2,0,0.4-0.2,0.4-0.4v-2.6
			C85.6,96.8,85.4,96.6,85.2,96.6L85.2,96.6z M85.2,96.6"/>
		<path d="M88.6,100.1h2.6c0.2,0,0.4-0.2,0.4-0.4v-2.6c0-0.2-0.2-0.4-0.4-0.4h-2.6c-0.2,0-0.4,0.2-0.4,0.4v2.6
			C88.2,99.9,88.4,100.1,88.6,100.1L88.6,100.1z M88.6,100.1"/>
		<path d="M85.2,102.6h-2.6c-0.2,0-0.4,0.2-0.4,0.4v2.6c0,0.2,0.2,0.4,0.4,0.4h2.6c0.2,0,0.4-0.2,0.4-0.4v-2.6
			C85.6,102.8,85.4,102.6,85.2,102.6L85.2,102.6z M85.2,102.6"/>
		<path d="M88.6,106h2.6c0.2,0,0.4-0.2,0.4-0.4v-2.6c0-0.2-0.2-0.4-0.4-0.4h-2.6c-0.2,0-0.4,0.2-0.4,0.4v2.6
			C88.2,105.9,88.4,106,88.6,106L88.6,106z M88.6,106"/>
		<path d="M76.7,83.6h2.6c0.2,0,0.4-0.2,0.4-0.4v-2.6c0-0.2-0.2-0.4-0.4-0.4h-2.6c-0.2,0-0.4,0.2-0.4,0.4v2.6
			C76.2,83.4,76.4,83.6,76.7,83.6L76.7,83.6z M76.7,83.6"/>
		<path d="M82.6,83.6h2.6c0.2,0,0.4-0.2,0.4-0.4v-2.6c0-0.2-0.2-0.4-0.4-0.4h-2.6c-0.2,0-0.4,0.2-0.4,0.4v2.6
			C82.2,83.4,82.4,83.6,82.6,83.6L82.6,83.6z M82.6,83.6"/>
		<path d="M79.2,89.5c0.2,0,0.4-0.2,0.4-0.4v-2.6c0-0.2-0.2-0.4-0.4-0.4h-2.6c-0.2,0-0.4,0.2-0.4,0.4v2.6c0,0.2,0.2,0.4,0.4,0.4
			H79.2z M79.2,89.5"/>
		<path d="M88.6,83.6h2.6c0.2,0,0.4-0.2,0.4-0.4v-2.6c0-0.2-0.2-0.4-0.4-0.4h-2.6c-0.2,0-0.4,0.2-0.4,0.4v2.6
			C88.2,83.4,88.4,83.6,88.6,83.6L88.6,83.6z M88.6,83.6"/>
	</g>
</g>
<g id="Capa_10" class="st0">
	<g id="XMLID_211_" class="st1">
		<path id="XMLID_248_" d="M116.3,5.4H40.8c-2.9,0-5.3,2.4-5.3,5.3v47.7H10.3c-2.9,0-5.3,2.4-5.3,5.3v53c0,2.9,2.4,5.3,5.3,5.3h106
			c2.9,0,5.3-2.4,5.3-5.3v-106C121.6,7.8,119.2,5.4,116.3,5.4L116.3,5.4z M46.1,16H111v38.7l-20-11c-1.6-0.9-3.5-0.9-5.1,0
			L59.3,58.4H46.1V16z M15.6,69h39.7v42.4H15.6V69z M111,111.4H66V66.9l22.5-12.5L111,66.9L111,111.4L111,111.4z M111,111.4"/>
		<path id="XMLID_245_" d="M30.2,75.7h-7.9c-0.7,0-1.3,0.6-1.3,1.3v7.9c0,0.7,0.6,1.3,1.3,1.3h7.9c0.7,0,1.3-0.6,1.3-1.3V77
			C31.5,76.2,30.9,75.7,30.2,75.7L30.2,75.7z M30.2,75.7"/>
		<path id="XMLID_242_" d="M48.7,75.7h-8c-0.7,0-1.3,0.6-1.3,1.3v7.9c0,0.7,0.6,1.3,1.3,1.3h8c0.7,0,1.3-0.6,1.3-1.3V77
			C50,76.2,49.5,75.7,48.7,75.7L48.7,75.7z M48.7,75.7"/>
		<path id="XMLID_239_" d="M30.2,94.2h-7.9c-0.7,0-1.3,0.6-1.3,1.3v7.9c0,0.7,0.6,1.3,1.3,1.3h7.9c0.7,0,1.3-0.6,1.3-1.3v-7.9
			C31.5,94.8,30.9,94.2,30.2,94.2L30.2,94.2z M30.2,94.2"/>
		<path id="XMLID_236_" d="M48.7,94.2h-8c-0.7,0-1.3,0.6-1.3,1.3v7.9c0,0.7,0.6,1.3,1.3,1.3h8c0.7,0,1.3-0.6,1.3-1.3v-7.9
			C50,94.8,49.5,94.2,48.7,94.2L48.7,94.2z M48.7,94.2"/>
		<path id="XMLID_233_" d="M83.2,75.7h-8c-0.7,0-1.3,0.6-1.3,1.3v7.9c0,0.7,0.6,1.3,1.3,1.3h8c0.7,0,1.3-0.6,1.3-1.3V77
			C84.5,76.2,83.9,75.7,83.2,75.7L83.2,75.7z M83.2,75.7"/>
		<path id="XMLID_230_" d="M93.8,86.3h7.9c0.7,0,1.3-0.6,1.3-1.3V77c0-0.7-0.6-1.3-1.3-1.3h-7.9c-0.7,0-1.3,0.6-1.3,1.3v7.9
			C92.4,85.7,93,86.3,93.8,86.3L93.8,86.3z M93.8,86.3"/>
		<path id="XMLID_227_" d="M83.2,94.2h-8c-0.7,0-1.3,0.6-1.3,1.3v7.9c0,0.7,0.6,1.3,1.3,1.3h8c0.7,0,1.3-0.6,1.3-1.3v-7.9
			C84.5,94.8,83.9,94.2,83.2,94.2L83.2,94.2z M83.2,94.2"/>
		<path id="XMLID_224_" d="M93.8,104.8h7.9c0.7,0,1.3-0.6,1.3-1.3v-7.9c0-0.7-0.6-1.3-1.3-1.3h-7.9c-0.7,0-1.3,0.6-1.3,1.3v7.9
			C92.4,104.2,93,104.8,93.8,104.8L93.8,104.8z M93.8,104.8"/>
		<path id="XMLID_221_" d="M56.7,35.1h7.9c0.7,0,1.3-0.6,1.3-1.3v-7.9c0-0.7-0.6-1.3-1.3-1.3h-7.9c-0.7,0-1.3,0.6-1.3,1.3v7.9
			C55.4,34.5,55.9,35.1,56.7,35.1L56.7,35.1z M56.7,35.1"/>
		<path id="XMLID_218_" d="M75.2,35.1h8c0.7,0,1.3-0.6,1.3-1.3v-7.9c0-0.7-0.6-1.3-1.3-1.3h-8c-0.7,0-1.3,0.6-1.3,1.3v7.9
			C73.9,34.5,74.5,35.1,75.2,35.1L75.2,35.1z M75.2,35.1"/>
		<path id="XMLID_215_" d="M64.6,53.6c0.7,0,1.3-0.6,1.3-1.3v-7.9c0-0.7-0.6-1.3-1.3-1.3h-7.9c-0.7,0-1.3,0.6-1.3,1.3v7.9
			c0,0.7,0.6,1.3,1.3,1.3H64.6z M64.6,53.6"/>
		<path id="XMLID_212_" d="M93.8,35.1h7.9c0.7,0,1.3-0.6,1.3-1.3v-7.9c0-0.7-0.6-1.3-1.3-1.3h-7.9c-0.7,0-1.3,0.6-1.3,1.3v7.9
			C92.4,34.5,93,35.1,93.8,35.1L93.8,35.1z M93.8,35.1"/>
	</g>
</g>
<g id="Capa_11" class="st0">
	<g id="XMLID_228_" class="st1">
		<g id="XMLID_229_">
			<defs>
				<rect id="XMLID_210_" x="15.5" y="1.2" width="94.8" height="125"/>
			</defs>
			<clipPath id="XMLID_137_">
				<use xlink:href="#XMLID_210_"  style="overflow:visible;"/>
			</clipPath>
			<path id="XMLID_246_" class="st4" d="M107.5,53.7c-8.8-13-20.7-21.9-35.1-27.3c-7-1.8-16.2,2.7-16.4,3c-0.5,0.2-0.9,0.4-1.4,0.7
				C46.9,34.7,34,44.3,39.6,55c5.6,10.7,23.3,8.8,33,7.5c1.8-0.2,3.5-1,4.6-2.2c1-0.8,1.8-1.9,1.8-3.7c0-0.9-0.4-2-0.9-2.9
				c-1-2.1-3.1-3.8-5.5-3.5c-5.5,0.7-11,1.1-16.5,0.6c-1.5-0.1-2.9-0.5-4.3-0.9c-0.7-0.2-0.9-0.3-1.2-0.5c0.1-0.4,0.3-0.7,0.7-1.3
				c1-1.3,2.2-2.5,3.5-3.5c0.5,0.9,1.1,1.7,1.8,2.5c0.5,0.7,1.1,1.3,1.6,2c4.5,0.2,9.3,0,15.6-0.8c4.7-0.6,8.5,4.2,8.5,8.3
				c0,4.4-3.2,7.7-8.1,8.3c-3.9,0.5-8.4,1-13.1,1.1c-6.5,16.3-9.6,32.9-8.8,50.7c0.5,10.9,17.4,10.9,16.9,0
				C68.6,103,70.3,90,74.7,77.3c0.8,0.4,1.6,0.6,2.5,0.8c0.8,14.2,3,28.3,7.1,42.1c3.1,10.4,19.5,6,16.3-4.5
				c-4.7-15.7-6.8-31.5-6.9-47.9c0-1.3-0.8-4.9-1-5.7c-0.9-4-2.1-7.8-3.6-11.4c2.8,2.7,5.4,5.8,7.7,9.2
				C101.3,66.4,111.9,60.3,107.5,53.7L107.5,53.7z M50.5,50.3c0-0.2,0.1-0.4,0.1-0.5c0,0.1,0,0,0-0.1c0,0,0,0,0,0c0,0,0,0.1,0,0.1
				C50.6,49.8,50.6,49.9,50.5,50.3L50.5,50.3z M50.5,50.3"/>
			<path id="XMLID_241_" class="st4" d="M64.1,13.8c0,7-5.6,12.6-12.6,12.6c-7,0-12.6-5.6-12.6-12.6c0-6.9,5.6-12.6,12.6-12.6
				C58.5,1.2,64.1,6.8,64.1,13.8L64.1,13.8z M64.1,13.8"/>
			<path id="XMLID_237_" class="st4" d="M21.5,75.8c0.3,0.1,0.6,0,0.8-0.3c1.6-2.1,3.7-4.2,6-6c-0.1,0.5-0.1,0.9-0.2,1.4
				c-0.1,0.3,0.1,0.7,0.4,0.9c0.3,0.2,0.7,0.2,1,0c3.2-2.3,7.5-5.3,12.2-7.6c0.4-0.2,0.6-0.7,0.4-1.1c-0.2-0.4-0.7-0.6-1.1-0.4
				c-4.1,2-7.8,4.4-10.8,6.6c0.1-0.5,0.1-1,0.2-1.4c0.1-0.3-0.1-0.7-0.4-0.9c-0.3-0.2-0.7-0.2-1,0c-3.2,2.2-5.9,4.9-8,7.6
				c-0.3,0.4-0.2,0.9,0.1,1.2C21.2,75.7,21.3,75.8,21.5,75.8L21.5,75.8z M21.5,75.8"/>
			<path id="XMLID_232_" class="st4" d="M46.9,69C40.3,73.9,34.6,79.6,30,84.4c-0.1-0.9-0.1-1.7-0.1-2.6c0-0.6-0.4-1.2-1-1.4
				c-0.6-0.2-1.3-0.1-1.7,0.4c-4.8,5.1-8.8,10.7-11.6,16.2c-0.4,0.8-0.1,1.7,0.7,2.1c0.2,0.1,0.5,0.2,0.7,0.2c0.6,0,1.1-0.3,1.4-0.9
				c2.1-4.3,5.1-8.6,8.6-12.7c0,0.9,0.1,1.7,0.1,2.5c0,0.6,0.4,1.2,1,1.4c0.6,0.2,1.3,0.1,1.7-0.4c4.8-5.3,11.4-12,18.9-17.7
				c0.7-0.5,0.8-1.5,0.3-2.1C48.5,68.6,47.5,68.5,46.9,69L46.9,69z M46.9,69"/>
		</g>
	</g>
</g>
<g id="Capa_12" class="st0">
	<g id="XMLID_253_" class="st1">
		<path id="XMLID_254_" d="M21.7,22.4v-15c0-2.1,1.7-3.8,3.8-3.8c2.1,0,3.8,1.7,3.8,3.8v15c0,2.1-1.7,3.8-3.8,3.8
			C23.3,26.2,21.7,24.5,21.7,22.4L21.7,22.4z M85.6,26.2c2.1,0,3.8-1.7,3.8-3.8v-15c0-2.1-1.7-3.8-3.8-3.8s-3.8,1.7-3.8,3.8v15
			C81.9,24.5,83.5,26.2,85.6,26.2L85.6,26.2z M127,93.9c0,16.6-13.5,30.1-30.1,30.1c-16.6,0-30.1-13.5-30.1-30.1
			c0-16.6,13.5-30.1,30.1-30.1C113.5,63.8,127,77.3,127,93.9L127,93.9z M119.5,93.9c0-12.4-10.1-22.6-22.6-22.6
			c-12.4,0-22.6,10.1-22.6,22.6c0,12.4,10.1,22.6,22.6,22.6C109.3,116.5,119.5,106.3,119.5,93.9L119.5,93.9z M36.7,48.8h-15v15h15
			V48.8z M21.7,86.4h15V71.3h-15V86.4z M44.2,63.8h15v-15h-15V63.8z M44.2,86.4h15V71.3h-15V86.4z M14.1,93.2V41.2h82.8v15h7.5V26.9
			c0-4.6-3.6-8.3-8.2-8.3h-3.1v3.8c0,4.1-3.4,7.5-7.5,7.5s-7.5-3.4-7.5-7.5v-3.8H32.9v3.8c0,4.1-3.4,7.5-7.5,7.5s-7.5-3.4-7.5-7.5
			v-3.8h-3.1c-4.5,0-8.2,3.7-8.2,8.3v66.2c0,4.6,3.6,8.3,8.2,8.3h44.5v-7.5H14.8C14.4,93.9,14.1,93.5,14.1,93.2L14.1,93.2z
			 M81.9,63.8v-15h-15v15H81.9z M108.2,93.9"/>
	</g>
	<g id="XMLID_255_" class="st1">
		<g id="XMLID_256_">
			<defs>
				<rect id="XMLID_257_" x="79.3" y="78.5" width="37.2" height="32.8"/>
			</defs>
			<clipPath id="XMLID_138_">
				<use xlink:href="#XMLID_257_"  style="overflow:visible;"/>
			</clipPath>
			<path id="XMLID_264_" class="st5" d="M107.5,111.2c0.4,0.4,1.5-0.1,1.9-0.5l0.6-0.6c0.4-0.4,0.9-1.5,0.5-1.9l-9.7-9.2l-2.5,2.7
				L107.5,111.2z M107.5,111.2"/>
			<path id="XMLID_261_" class="st5" d="M91.4,89.9C92.7,87.7,92,85,90,83c-2.3-2.3-7.4-4.6-9.8-2.3c-2.3,2.3-0.1,7.4,2.3,9.8
				c1.9,1.9,4.5,2.6,6.7,1.5l4.6,4.8l2.4-2.3L91.4,89.9z M91.4,89.9"/>
			<path id="XMLID_258_" class="st5" d="M103.4,89.8l-19.2,18.3c-0.4,0.4,0.1,1.5,0.5,1.9l0.6,0.6c0.3,0.3,1,0.7,1.5,0.7
				c0.2,0,0.3,0,0.4-0.1l18.3-19.3c0.5,0.3,1,0.4,1.6,0.4c1.6,0.1,3.3-0.6,4.7-1.9c4.6-4.6,5.5-5.6,4-7.4l-5.5,5.2
				c-0.1,0.1-0.3,0.2-0.5,0.2c-0.2,0-0.3-0.1-0.4-0.2l-0.1-0.1c-0.1-0.1-0.2-0.2-0.2-0.4c0-0.2,0.1-0.3,0.2-0.5l4.9-5.8
				c-0.1-0.1-0.2-0.2-0.4-0.4c-0.2-0.2-0.4-0.4-0.6-0.6l-5.8,5c-0.1,0.1-0.3,0.2-0.4,0.2c-0.2,0-0.3-0.1-0.4-0.2l-0.1-0.1
				c-0.1-0.1-0.2-0.2-0.2-0.4c0-0.2,0.1-0.3,0.2-0.5l5.2-5.4c-1.7-1.2-2.7-0.2-7.2,4.3c-1.5,1.5-2.2,3.4-1.9,5.1
				C102.9,88.8,103.1,89.3,103.4,89.8L103.4,89.8z M103.4,89.8"/>
		</g>
	</g>
</g>
<g id="Capa_13" class="st0">
	<g id="XMLID_272_" class="st1">
		<g id="XMLID_273_">
			<path id="XMLID_279_" d="M65.5,57.9l18.9-10.5c1.7-1,2.4-3.2,1.4-4.9c-1-1.8-3.2-2.4-4.9-1.4L62.4,51.4c-0.8-0.4-1.8-0.7-2.8-0.7
				c-1,0-2,0.3-2.8,0.7L38.2,41.1c-1.7-1-4-0.3-4.9,1.4c-1,1.7-0.3,4,1.4,4.9l18.9,10.5c0.5,2.8,3,4.9,6,4.9S65,60.7,65.5,57.9
				L65.5,57.9z M65.5,57.9"/>
			<path id="XMLID_274_" d="M117,79.3c-1.8-2-3.6-3.6-5.6-4.8c1.9-5.6,3-11.6,3-17.8C114.4,26.6,89.8,2,59.6,2S4.8,26.6,4.8,56.8
				c0,30.2,24.6,54.8,54.8,54.8c1.2,2.2,2.6,4.2,4.2,6.1c5.2,5.8,12.3,9.2,19.4,9.2c0.7,0,1.4,0,2.2-0.1c1.3-0.1,2.3-0.5,3.1-0.8
				c0.7-0.2,0.9-0.3,1.1-0.3c0.3,0,0.4,0,1,0.3c0.7,0.3,1.7,0.7,2.9,0.8c0.8,0.1,1.6,0.1,2.5,0.1c7.1,0,14.2-3.4,19.4-9.2
				c4.8-5.3,7.6-12.2,8-19.3C123.7,91.1,121.5,84.3,117,79.3L117,79.3z M39.4,95.1l2.3-4.1c0.2-0.4,0.3-0.8,0.1-1.2
				c-0.1-0.4-0.4-0.7-0.7-0.9c-0.2-0.1-0.5-0.2-0.8-0.2c-0.5,0-1.1,0.3-1.3,0.8l-2.3,4.1C31.5,90.3,27,86,23.6,80.9l5-2.9
				c1.4-0.8,1.9-2.6,1.1-3.9c-0.8-1.4-2.6-1.9-3.9-1.1l-5,2.9c-2.6-5.3-4.2-11.2-4.4-17.4l4.7,0c0.4,0,0.8-0.2,1.1-0.5
				c0.3-0.3,0.4-0.7,0.4-1.1c0-0.8-0.7-1.5-1.5-1.5l-4.7,0c0.2-6.3,1.8-12.3,4.4-17.7l5,2.9c0.5,0.3,0.9,0.4,1.4,0.4
				c1,0,2-0.5,2.5-1.4c0.8-1.4,0.3-3.1-1.1-3.9l-5-2.9c3.4-5,7.8-9.3,12.9-12.5l2.4,4.1c0.1,0.2,0.3,0.4,0.6,0.6
				c0.5,0.3,1.1,0.3,1.5,0c0.4-0.2,0.6-0.5,0.7-0.9c0.1-0.4,0-0.8-0.2-1.2l-2.4-4.1c5.3-2.8,11.2-4.6,17.5-5v5.7
				c0,1.6,1.3,2.9,2.9,2.9c1.6,0,2.9-1.3,2.9-2.9v-5.7c6.2,0.4,12.1,2.1,17.3,4.9l-2.3,4.1c-0.4,0.7-0.2,1.7,0.6,2.1
				c0.2,0.1,0.5,0.2,0.8,0.2c0.5,0,1.1-0.3,1.3-0.8l2.3-4.1c5.2,3.3,9.7,7.6,13.1,12.7l-5,2.9c-1.4,0.8-1.9,2.6-1.1,3.9
				c0.5,0.9,1.5,1.4,2.5,1.4c0.5,0,1-0.1,1.4-0.4l5-2.9c2.6,5.3,4.2,11.2,4.4,17.4l-4.7,0c-0.4,0-0.8,0.2-1.1,0.5
				c-0.3,0.3-0.4,0.7-0.4,1.1c0,0.5,0.3,1.1,0.8,1.3c0.2,0.1,0.5,0.2,0.8,0.2h0l4.7,0c-0.2,4.8-1.1,9.5-2.7,13.8
				c-2.7,0.3-5,1.1-6.9,1.9c0.9-3.5,2.2-6.6,4.3-7.5c1.2-0.5,1.7-1.9,1.2-3.1c-0.5-1.2-1.9-1.7-3.1-1.2c-1.9,0.8-3.5,2.4-4.8,4.8
				c-0.7-2-1.9-3.6-3.5-4.8c-2-1.3-4.5-1.8-7.1-1.3c-0.8,0.2-1.7,0.4-2.5,0.8c-0.4,0.2-0.6,0.5-0.6,0.9c-0.1,3.7,1.4,6.9,4.1,8.7
				c2,1.3,4.5,1.8,7.1,1.3c0.2,0,0.3-0.1,0.5-0.1c-0.2,0.7-0.3,1.4-0.5,2.2c0,0.1,0,0.2-0.1,0.3c0,0-0.1,0-0.1,0
				c-2.6-1.2-6.4-3-11-3c-5.5,0-10.5,2.5-15,7.5c-4.4,5-6.7,11.7-6.3,19c0,0.5,0.1,1,0.1,1.5C50,99.4,44.4,97.7,39.4,95.1L39.4,95.1
				z M116,97.9c-0.3,5.5-2.5,10.8-6.2,14.9c-3.9,4.4-9.1,6.9-14.2,6.9h0c-0.6,0-1.2,0-1.7-0.1c-0.4,0-0.8-0.2-1.3-0.4
				c-0.8-0.3-1.7-0.7-3.2-0.7c-1.4,0-2.4,0.4-3.2,0.7c-0.5,0.2-1,0.4-1.4,0.4c-0.5,0-1,0.1-1.5,0.1c-5.1,0-10.3-2.5-14.2-6.9
				c-3.7-4.1-5.9-9.4-6.2-14.9c-0.3-5.4,1.3-10.4,4.5-14c3.1-3.5,6.4-5.2,9.9-5.2c3.1,0,5.9,1.3,8.1,2.3c0.7,0.3,1.3,0.6,1.8,0.8
				c-0.1,1.3-0.1,2.2-0.1,2.3c-0.3-0.1-0.7-0.1-1-0.2l0,0c-0.4-0.1-0.8-0.2-1.2-0.4c-0.3-0.1-0.6-0.2-0.9-0.4L84.1,83
				c-0.1-0.1-0.2,0-0.3,0c-0.1,0.1-0.1,0.2-0.1,0.3c0.3,1,1.1,1.8,2.1,2.5c1.1,0.6,2.4,1,3.7,1c0.6,0,1.3-0.1,1.9-0.2
				c1.9-0.5,3.4-1.7,4-3.2c0-0.1,0-0.2-0.1-0.3C95.2,83,95.1,83,95,83c-0.1,0-0.2,0.1-0.2,0.1c-0.2,0.1-0.3,0.2-0.5,0.2
				c-0.8,0.3-1.6,0.6-2.5,0.7c0,0,0.1-1.5,0.1-2.4c0.5-0.2,1-0.4,1.6-0.7c2.2-1,5-2.3,8.1-2.3c3.5,0,6.8,1.7,9.9,5.2
				C114.7,87.5,116.3,92.4,116,97.9L116,97.9z M116,97.9"/>
		</g>
	</g>
</g>
</svg>
